video398525799_456239535_2F60a3c6012db3f4ae74
video-186365631_456239019_2F7163ee5041a5dba280
video379285023_456239249_2F7d0a3c6509eae257b4
video461763474_456239262_2Faeb4181638dfff08cb
video439355388_456239223_2Ff054b8c2218b36a8bb
video-191734168_456240646_2F97ba731448f2d57e85
video539203078_456239142_2Fc114cb73a483af1efb
video414909443_456241217_2Feaa732ea2120c3c577
video237148133_456239353_2Ff75cc4b6aea8eb3a4f
video-191878895_456247227
video-202842608_456239031
